…
As we can see, the tidy\_songlist data set contains 68,988 words.

Next, I looked at the most frequently occurring words to help inform
decisions on removing stopwords.

``` r
tidy_songlist %>%
  dplyr::count(word, sort = TRUE)
```

    ## # A tibble: 6,458 x 2
    ##    word      n
    ##    <chr> <int>
    ##  1 the    3520
    ##  2 and    2499
    ##  3 i      1904
    ##  4 you    1780
    ##  5 a      1420
    ##  6 to     1315
    ##  7 in     1069
    ##  8 of      968
    ##  9 my      904
    ## 10 me      875
    ## # ... with 6,448 more rows
…
``` r
tidy_rm_stopwords %>%
  count(word, sort = TRUE)
```

    ## # A tibble: 5,931 x 2
    ##    word      n
    ##    <chr> <int>
    ##  1 love    369
    ##  2 la      282
    ##  3 time    167
    ##  4 life    133
    ##  5 baby    119
    ##  6 day     118
    ##  7 babe    115
    ##  8 eyes    114
    ##  9 hand    105
    ## 10 yeah    100
    ## # ... with 5,921 more rows
…
``` r
tidy_nickcave %>%
  dplyr::count(word, sort = TRUE)
```

    ## # A tibble: 4,729 x 2
    ##    word      n
    ##    <chr> <int>
    ##  1 la      244
    ##  2 love    219
    ##  3 babe    115
    ##  4 baby    113
    ##  5 fire     98
    ##  6 eyes     87
    ##  7 time     80
    ##  8 yeah     79
    ##  9 black    78
    ## 10 hand     77
    ## # ... with 4,719 more rows
…
``` r
tidy_moz %>%
  dplyr::count(word, sort = TRUE)
```

    ## # A tibble: 2,315 x 2
    ##    word       n
    ##    <chr>  <int>
    ##  1 love     150
    ##  2 life      97
    ##  3 time      87
    ##  4 day       67
    ##  5 gonna     49
    ##  6 heart     48
    ##  7 people    39
    ##  8 la        38
    ##  9 born      37
    ## 10 exit      35
    ## # ... with 2,305 more rows
…
From here, let’s take a look at each artist’s most commonly used words,
and the sentiment applied to each:

``` r
# Nick Cave and the Bad Seeds
tidy_nickcave_bing_counts <- tidy_nickcave_bing %>%
  dplyr::count(word, sentiment, sort = TRUE) %>%
  dplyr::ungroup() 

tidy_nickcave_bing_counts
```

    ## # A tibble: 754 x 3
    ##    word  sentiment     n
    ##    <chr> <chr>     <int>
    ##  1 love  positive    219
    ##  2 lie   negative     46
    ##  3 hard  negative     44
    ##  4 pain  negative     40
    ##  5 dead  negative     39
    ##  6 die   negative     39
    ##  7 poor  negative     34
    ##  8 death negative     32
    ##  9 cry   negative     31
    ## 10 bad   negative     29
    ## # ... with 744 more rows

``` r
# Morrissey
tidy_moz_bing_counts <- tidy_moz_bing %>%
  dplyr::count(word, sentiment, sort = TRUE) %>%
  dplyr::ungroup() 

tidy_moz_bing_counts 
```

    ## # A tibble: 495 x 3
    ##    word   sentiment     n
    ##    <chr>  <chr>     <int>
    ##  1 love   positive    150
    ##  2 kill   negative     24
    ##  3 wrong  negative     23
    ##  4 dead   negative     21
    ##  5 killed negative     19
    ##  6 pain   negative     19
    ##  7 sick   negative     19
    ##  8 poor   negative     17
    ##  9 cry    negative     16
    ## 10 die    negative     16
    ## # ... with 485 more rows
…
